{
	"$schema": "https://raw.githubusercontent.com/martinring/tmlanguage/master/tmlanguage.json",
	"name": "ASTRA",
	"scopeName": "source.astra",
	"patterns": [
		{
			"include": "#strings"
		},
		{
			"include": "#comments"
		},
		{
			"include": "#keywords"
		}
	],
	"repository": {
		"keywords": {
			"patterns": [{
				"name": "keyword.control.astra",
				"match": "\\b(if|while|foreach|forall|else|done|message|at_index|list_count|wait)\\b"
			},
			{
				"name" : "keyword.control.astra",
				"match" : "::|:-|<-|\\+|-|\\*|/|%|!|@|\\$"
			},
			{
				"name" : "keyword.other.astra",
				"match" : "\\b(package|agent|extends|import|module|rule|goal|types|formula|inference|body|initial|try|recover|send|query)\\b"
			},
			{
				"name" : "entity.name.type.astra",
				"match" : "\\b(string|list|int|long|float|double|boolean|funct)\\b"
			},
			{
				"name" : "constant.language.astra",
				"match" : "\\b(true|false)\\b"
			}
		]},
		"strings": {
			"begin": "\"",
			"beginCaptures": {
				"0": {
					"name": "punctuation.definition.string.begin.astra"
				}
			},
			"end": "\"",
			"endCaptures": {
				"0": {
					"name": "punctuation.definition.string.end.astra"
				}
			},
			"name": "string.quoted.double.astra",
			"patterns": [
				{
					"match": "\\\\.",
					"name": "constant.character.escape.astra"
				}
			]
		},
		"comments": {
			"patterns": [
				{
					"begin": "/\\*",
					"captures": {
						"0": {
							"name": "punctuation.definition.comment.java"
						}
					},
					"end": "\\*/",
					"name": "comment.block.java" 
				},
				{
					"begin": "(//).*$",
					"captures": {
						"0": {
							"name": "punctuation.definition.comment.astra"
						}
					},
					"end": "\\n",
					"name": "comment.line.double-slash.astra"
				}
			]
		}
	}
}